<?xml version="1.0" encoding="iso-8859-1"?>
<!-- Generator: Adobe Illustrator 19.0.0, SVG Export Plug-In . SVG Version: 6.00 Build 0)  -->
<svg version="1.1" id="Layer_1" xmlns="http://www.w3.org/2000/svg" xmlns:xlink="http://www.w3.org/1999/xlink" x="0px" y="0px"
	 viewBox="0 0 512 512" style="enable-background:new 0 0 512 512;" xml:space="preserve">
<rect x="45.146" y="241.503" style="fill:#F8CD10;" width="421.708" height="117.825"/>
<path style="fill:#A7B1B5;" d="M255.353,197.435c-6.427,0-12.824-0.561-19.012-1.665c-22.631-3.984-42.871-15.02-56.988-31.076
	l-4.428-5.034h160.861l-4.438,5.037c-2.477,2.812-5.155,5.486-7.957,7.946C305.291,188.629,281.126,197.435,255.353,197.435z"/>
<polygon style="fill:#565B5F;" points="129.826,232.401 144.372,159.659 159.119,159.659 144.584,232.401 "/>
<rect x="12.13" y="241.503" style="fill:#A58763;" width="23.917" height="20.288"/>
<g>
	<rect x="32.743" y="211.441" style="fill:#CCD6DB;" width="70.163" height="20.955"/>
	<rect x="409.093" y="211.441" style="fill:#CCD6DB;" width="70.163" height="20.955"/>
</g>
<rect x="143.895" y="132.796" style="fill:#565B5F;" width="222.914" height="17.761"/>
<path style="fill:#A7B1B5;" d="M171.288,123.703l0.308-3.314c1.931-20.75,11.509-39.982,26.969-54.154
	c15.56-14.262,35.728-22.118,56.789-22.118c13.132,0,25.722,2.958,37.421,8.79c25.913,12.924,43.671,38.78,46.347,67.481
	l0.309,3.314H171.288z"/>
<polygon style="fill:#565B5F;" points="367.416,232.401 352.881,159.659 367.628,159.659 382.174,232.401 "/>
<g>
	<rect x="461.112" y="456.846" style="fill:#A58763;" width="28.638" height="23.209"/>
	<rect x="22.249" y="456.846" style="fill:#A58763;" width="28.183" height="23.209"/>
	<polygon style="fill:#A58763;" points="461.113,447.753 461.113,400.556 475.952,400.556 475.952,270.883 489.75,270.883 
		489.75,447.753 	"/>
	<polygon style="fill:#A58763;" points="22.25,447.753 22.25,270.883 36.048,270.883 36.048,400.556 50.433,400.556 50.433,447.753 
			"/>
</g>
<rect x="45.146" y="368.244" style="fill:#6DA7C0;" width="421.708" height="23.219"/>
<g>
	<path style="fill:#CCD6DB;" d="M321.392,170.364c-17.205,15.193-40.818,24.038-66.039,24.038c-6.288,0-12.474-0.546-18.478-1.617
		c-11.807-5.398-22.239-13.01-30.508-22.421H321.392z"/>
	<path style="fill:#CCD6DB;" d="M336.1,120.671H200.433c7.157-37.442,40.161-65.837,79.655-65.837c3.841,0,7.622,0.273,11.332,0.788
		C315.944,67.854,333.442,92.144,336.1,120.671z"/>
</g>
<path style="fill:#C6A312;" d="M463.822,244.531v31.235H130.115c-28.549,0-51.692,23.143-51.692,51.692v28.651H48.178V244.531
	L463.822,244.531L463.822,244.531z"/>
<rect x="475.435" y="241.503" style="fill:#A58763;" width="25.219" height="20.018"/>
<path d="M491.387,199.314h-94.42v30.053h-3.033l-14.991-75.009v-33.692h-27.631c-3.683-47.042-41.333-84.692-88.375-88.375v-12.48
	h-15.163v12.48c-47.043,3.683-84.693,41.333-88.376,88.375h-27.631v40.133l-13.703,68.568h-3.033v-30.053H20.613v30.053H0v44.548
	h10.12v218.274h52.442v-88.597h386.421v88.597h52.898V273.915H512v-44.548h-20.613V199.314z M412.13,214.477h64.094v14.89H412.13
	V214.477z M378.471,229.367H369.9l-13.326-66.678h8.571L378.471,229.367z M255.356,47.155c42.157,0,76.904,32.338,80.74,73.51
	H174.615C178.451,79.495,213.198,47.155,255.356,47.155z M146.932,135.829h12.17h192.509h12.171v11.698h-6.278h-19.422H173.919
	h-20.709h-6.277L146.932,135.829L146.932,135.829z M255.356,209.561c34.793,0,67.051-14.815,87.251-39.388l11.83,59.194H157.562
	l11.585-57.968C189.404,195.232,221.151,209.561,255.356,209.561z M181.635,162.689h147.441
	c-17.436,19.832-44.499,31.71-73.721,31.71C226.133,194.399,199.073,182.521,181.635,162.689z M146.853,162.689h8.572
	l-13.326,66.678h-8.571L146.853,162.689z M35.776,214.477H99.87v14.89H35.776V214.477z M15.163,244.53h5.451h12.404v14.223H15.163
	V244.53z M47.399,477.026H25.282v-17.14h22.116V477.026z M47.399,444.724H25.282V273.916h7.734v129.675h14.382V444.724z
	 M463.821,388.429H48.179v-17.157h415.641V388.429z M463.821,356.109h-60.551v-39.63h-15.163v39.63h-78.723v-39.63H294.22v39.63
	h-78.722v-39.63h-15.163v39.63h-78.723v-39.63h-15.163v39.63h-58.27V244.53h66.854h0.002h39.496h202.937h39.496h0.002h66.854
	L463.821,356.109L463.821,356.109z M486.717,477.026h-22.572v-17.14h22.572V477.026z M486.717,444.724h-22.572v-41.132h14.838
	V273.916h7.734V444.724z M496.837,244.53v14.223h-17.854V244.53h12.404L496.837,244.53L496.837,244.53z"/>
<g>
	<path style="fill:#E5E9EA;" d="M264.581,73.405c4.044,1.277,7.999,2.943,11.754,4.95l7.151-13.371
		c-4.579-2.449-9.404-4.482-14.341-6.041L264.581,73.405z"/>
	<path style="fill:#E5E9EA;" d="M293.52,71.296l-8.951,12.238c8.727,6.382,15.941,14.824,20.863,24.415l13.491-6.924
		C312.925,89.345,304.142,79.065,293.52,71.296z"/>
</g>
<g>
	<rect x="312.203" y="253.937" style="fill:#FFDF5A;" width="112.266" height="15.163"/>
	<rect x="432.555" y="253.937" style="fill:#FFDF5A;" width="15.163" height="15.154"/>
</g>
<g>
	<circle style="fill:#E5E9EA;" cx="257.728" cy="101.035" r="17.121"/>
	<ellipse style="fill:#E5E9EA;" cx="270.97" cy="180.286" rx="21.748" ry="6.361"/>
</g>
<g>
	<polygon style="fill:#44494C;" points="363.777,135.834 363.777,141.676 157.876,141.676 157.876,147.529 146.929,147.529 
		146.929,135.834 	"/>
	<polygon style="fill:#44494C;" points="155.42,162.692 154.156,169.01 150.073,169.01 137.477,229.368 133.525,229.368 
		146.858,162.692 	"/>
	<polygon style="fill:#44494C;" points="374.139,229.368 369.903,229.368 356.58,162.692 365.142,162.692 366.678,170.364 
		362.999,170.364 	"/>
</g>
<g>
	<polygon style="fill:#A7B1B5;" points="99.873,214.478 99.873,221.918 48.178,221.918 48.178,229.368 35.775,229.368 
		35.775,214.478 	"/>
	<polygon style="fill:#A7B1B5;" points="476.225,214.478 476.225,221.918 424.479,221.918 424.479,229.368 412.127,229.368 
		412.127,214.478 	"/>
</g>
<g>
	<rect x="172.31" y="289.054" style="fill:#FFDF5A;" width="15.073" height="58.326"/>
	<rect x="267.826" y="289.054" style="fill:#FFDF5A;" width="15.073" height="58.326"/>
	<rect x="363.332" y="289.054" style="fill:#FFDF5A;" width="15.073" height="58.326"/>
	<rect x="448.749" y="289.054" style="fill:#FFDF5A;" width="15.073" height="58.326"/>
</g>
<g>
	<rect x="121.616" y="316.478" style="fill:#C6A312;" width="15.835" height="39.615"/>
	<rect x="215.464" y="316.478" style="fill:#C6A312;" width="15.835" height="39.615"/>
	<rect x="309.322" y="316.478" style="fill:#C6A312;" width="15.835" height="39.615"/>
	<rect x="403.179" y="316.478" style="fill:#C6A312;" width="15.835" height="39.615"/>
</g>
<g>
	<polygon style="fill:#8C6D4B;" points="33.016,244.531 33.016,251.637 22.806,251.637 22.806,258.754 15.164,258.754 
		15.164,244.531 	"/>
	<polygon style="fill:#8C6D4B;" points="47.4,403.589 47.4,411.625 33.177,411.625 33.177,444.721 25.282,444.721 25.282,273.916 
		33.016,273.916 33.016,403.589 	"/>
	<polygon style="fill:#8C6D4B;" points="47.4,459.883 47.4,466.686 32.935,466.686 32.935,477.027 25.282,477.027 25.282,459.883 	
		"/>
	<polygon style="fill:#8C6D4B;" points="486.717,273.916 486.717,444.721 478.984,444.721 478.984,415.143 464.145,415.143 
		464.145,403.589 478.984,403.589 478.984,273.916 	"/>
	<polygon style="fill:#8C6D4B;" points="496.836,244.531 496.836,251.213 486.717,251.213 486.717,258.754 478.984,258.754 
		478.984,244.531 	"/>
	<polygon style="fill:#8C6D4B;" points="486.717,459.883 486.717,477.027 480.42,477.027 480.42,465.483 464.145,465.483 
		464.145,459.883 	"/>
</g>
<polygon style="fill:#4A8EA5;" points="463.822,371.272 463.822,379.854 67.829,379.854 67.829,388.426 48.178,388.426 
	48.178,371.272 "/>
<g>
</g>
<g>
</g>
<g>
</g>
<g>
</g>
<g>
</g>
<g>
</g>
<g>
</g>
<g>
</g>
<g>
</g>
<g>
</g>
<g>
</g>
<g>
</g>
<g>
</g>
<g>
</g>
<g>
</g>
</svg>
