<?xml version="1.0" encoding="iso-8859-1"?>
<!-- Generator: Adobe Illustrator 19.0.0, SVG Export Plug-In . SVG Version: 6.00 Build 0)  -->
<svg version="1.1" id="Capa_1" xmlns="http://www.w3.org/2000/svg" xmlns:xlink="http://www.w3.org/1999/xlink" x="0px" y="0px"
	 viewBox="0 0 512 512" style="enable-background:new 0 0 512 512;" xml:space="preserve">
<path style="fill:#FFB124;" d="M86.821,113.16H37.387c-5.058,0-9.158,4.1-9.158,9.158v27.436h67.75v-27.436
	C95.978,117.26,91.878,113.16,86.821,113.16z"/>
<path style="fill:#FF901E;" d="M86.821,113.16H58.712c0.157,1.227,0.247,2.475,0.247,3.744v32.85h37.02v-27.436
	C95.978,117.26,91.878,113.16,86.821,113.16z"/>
<path style="fill:#775146;" d="M478.08,140.906h-50.53c-6.535,0-12.675-3.131-16.513-8.42L382.2,92.744
	c-4.658-6.419-12.108-10.218-20.039-10.218H226.086c-7.931,0-15.382,3.799-20.039,10.218l-28.837,39.742
	c-3.838,5.289-9.978,8.42-16.513,8.42H33.92c-14.709,0-26.634,11.924-26.634,26.634v235.303c0,14.709,11.924,26.634,26.634,26.634
	h444.16c14.709,0,26.634-11.924,26.634-26.634V167.54C504.713,152.831,492.789,140.906,478.08,140.906z"/>
<path style="fill:#634038;" d="M478.08,140.906h-37.225c14.709,0,26.634,11.924,26.634,26.634v235.303
	c0,14.709-11.924,26.634-26.634,26.634h37.225c14.709,0,26.634-11.924,26.634-26.634V167.54
	C504.713,152.831,492.789,140.906,478.08,140.906z"/>
<g>
	<path style="fill:#FF4C4C;" d="M478.08,140.906h-50.53c-6.535,0-12.675-3.131-16.513-8.42L382.2,92.744
		c-4.658-6.419-12.108-10.218-20.039-10.218H226.086c-7.931,0-15.382,3.799-20.039,10.218l-28.837,39.742
		c-3.838,5.289-9.978,8.42-16.513,8.42H33.92c-14.709,0-26.634,11.924-26.634,26.634v26.339h497.427V167.54
		C504.713,152.831,492.789,140.906,478.08,140.906z"/>
	<path style="fill:#FF4C4C;" d="M7.287,378.582v24.261c0,14.71,11.924,26.634,26.634,26.634H478.08
		c14.709,0,26.634-11.924,26.634-26.634v-24.261H7.287z"/>
</g>
<g>
	<path style="fill:#F33939;" d="M478.08,140.906h-37.225c14.709,0,26.634,11.924,26.634,26.634v26.339h37.225V167.54
		C504.713,152.831,492.789,140.906,478.08,140.906z"/>
	<path style="fill:#F33939;" d="M467.488,402.843c0,14.709-11.924,26.634-26.634,26.634h37.225
		c14.709,0,26.634-11.924,26.634-26.634v-24.261h-37.225V402.843z"/>
</g>
<circle style="fill:#FFB124;" cx="292.65" cy="274.001" r="155.47"/>
<circle style="fill:#FFFCFD;" cx="292.65" cy="274.001" r="119.54"/>
<path style="fill:#E6E6E6;" d="M377.173,358.526c46.682-46.682,46.682-122.37,0-169.052L208.121,358.526
	C254.804,405.209,330.491,405.209,377.173,358.526z"/>
<circle style="fill:#21D8DE;" cx="292.65" cy="274.001" r="32.587"/>
<path style="fill:#AF8A83;" d="M84.528,140.906H33.92c-14.709,0-26.634,11.924-26.634,26.634v235.303
	c0,14.709,11.924,26.634,26.634,26.634h50.608c16.146,0,29.234-13.089,29.234-29.234V170.14
	C113.762,153.995,100.674,140.906,84.528,140.906z"/>
<path style="fill:#927167;" d="M84.528,140.906h-37.02c16.146,0,29.234,13.089,29.234,29.234v230.102
	c0,16.146-13.088,29.234-29.234,29.234h37.02c16.146,0,29.234-13.089,29.234-29.234V170.14
	C113.762,153.995,100.674,140.906,84.528,140.906z"/>
<path d="M382.326,184.322c-23.954-23.954-55.804-37.146-89.679-37.146s-65.724,13.192-89.678,37.146S165.823,240.124,165.823,274
	s13.193,65.724,37.146,89.678c23.954,23.954,55.803,37.146,89.678,37.146s65.725-13.192,89.679-37.146
	C431.774,314.23,431.774,233.771,382.326,184.322z M292.647,386.252c-29.983,0-58.172-11.676-79.373-32.878
	c-21.202-21.202-32.879-49.39-32.879-79.374s11.676-58.172,32.879-79.374c21.201-21.202,49.39-32.878,79.373-32.878
	c29.984,0,58.173,11.676,79.374,32.878c43.767,43.767,43.767,114.981,0,158.748C350.82,374.575,322.631,386.252,292.647,386.252z"/>
<path d="M292.647,234.127c-21.987,0-39.874,17.887-39.874,39.874c0,21.986,17.887,39.873,39.874,39.873s39.874-17.887,39.874-39.873
	C332.521,252.014,314.634,234.127,292.647,234.127z M292.647,299.301c-13.951,0-25.301-11.35-25.301-25.3
	c0-13.951,11.35-25.301,25.301-25.301s25.301,11.35,25.301,25.301C317.948,287.951,306.598,299.301,292.647,299.301z"/>
<path d="M478.08,133.62h-50.53c-4.188,0-8.156-2.023-10.615-5.413l-28.838-39.742c-6.009-8.281-15.705-13.225-25.936-13.225h-50.965
	c-4.025,0-7.287,3.262-7.287,7.287s3.262,7.287,7.287,7.287h50.965c5.579,0,10.865,2.695,14.141,7.211l28.838,39.742
	c5.192,7.156,13.569,11.427,22.41,11.427h50.53c10.668,0,19.347,8.679,19.347,19.347v19.052h-67.464
	c-14.071-22.055-33.37-40.542-56.034-53.632c-6.939-4.007-14.164-7.462-21.591-10.385c-0.049-0.02-0.099-0.039-0.148-0.058
	c-1.162-0.456-2.326-0.903-3.498-1.332c-0.335-0.123-0.673-0.239-1.009-0.36c-1.365-0.489-2.735-0.965-4.112-1.417
	c-1.047-0.346-2.096-0.685-3.151-1.01c-0.478-0.146-0.958-0.287-1.438-0.429c-1.204-0.358-2.413-0.702-3.628-1.033
	c-0.314-0.085-0.628-0.172-0.942-0.256c-4.928-1.309-9.947-2.39-15.046-3.236c-0.1-0.017-0.2-0.033-0.3-0.05
	c-3.435-0.563-6.904-1.024-10.408-1.367c-0.012-0.001-0.023-0.002-0.035-0.003c-1.587-0.155-3.181-0.283-4.781-0.392
	c-0.387-0.027-0.774-0.05-1.162-0.074c-1.271-0.078-2.546-0.14-3.825-0.188c-0.432-0.016-0.863-0.036-1.295-0.049
	c-1.632-0.049-3.269-0.081-4.912-0.081s-3.28,0.032-4.912,0.081c-0.432,0.013-0.863,0.033-1.295,0.049
	c-1.279,0.048-2.554,0.111-3.825,0.188c-0.387,0.024-0.774,0.047-1.162,0.074c-1.6,0.109-3.194,0.237-4.781,0.392
	c-0.012,0.001-0.023,0.002-0.035,0.003c-3.503,0.344-6.972,0.804-10.408,1.367c-0.1,0.016-0.2,0.033-0.3,0.05
	c-5.098,0.846-10.118,1.926-15.046,3.236c-0.315,0.083-0.628,0.17-0.942,0.256c-1.215,0.331-2.425,0.675-3.628,1.033
	c-0.48,0.142-0.96,0.282-1.438,0.429c-1.056,0.325-2.105,0.664-3.151,1.01c-1.377,0.453-2.747,0.928-4.112,1.417
	c-0.336,0.121-0.674,0.237-1.009,0.36c-1.172,0.429-2.336,0.876-3.498,1.332c-0.049,0.019-0.099,0.039-0.148,0.058
	c-7.428,2.924-14.653,6.378-21.591,10.385c-22.664,13.09-41.963,31.577-56.034,53.632h-34.282v-16.452
	c0-0.588-0.018-1.172-0.045-1.754c-0.007-0.151-0.019-0.3-0.028-0.451c-0.026-0.428-0.057-0.854-0.097-1.278
	c-0.017-0.181-0.037-0.361-0.056-0.541c-0.044-0.404-0.096-0.805-0.153-1.204c-0.025-0.171-0.048-0.342-0.075-0.512
	c-0.073-0.46-0.155-0.916-0.245-1.369c-0.019-0.098-0.035-0.198-0.056-0.295c-0.115-0.555-0.242-1.106-0.382-1.652
	c-0.028-0.109-0.06-0.216-0.089-0.325c-0.114-0.429-0.234-0.855-0.364-1.278c-0.053-0.171-0.108-0.341-0.163-0.512
	c-0.117-0.363-0.239-0.725-0.367-1.083c-0.063-0.176-0.126-0.351-0.191-0.525c-0.139-0.371-0.285-0.738-0.435-1.102
	c-0.06-0.145-0.117-0.292-0.179-0.436c-0.217-0.506-0.442-1.008-0.68-1.503c0,0,0,0,0-0.001c-0.237-0.49-0.486-0.973-0.744-1.451
	c-0.078-0.144-0.16-0.286-0.239-0.429c-0.186-0.335-0.376-0.667-0.573-0.995c-0.097-0.162-0.196-0.323-0.296-0.484
	c-0.195-0.314-0.394-0.624-0.598-0.932c-0.1-0.15-0.198-0.301-0.299-0.45c-0.244-0.356-0.495-0.707-0.751-1.055
	c-0.065-0.088-0.127-0.178-0.192-0.266c-0.016-0.022-0.032-0.045-0.048-0.067h46.995c8.842,0,17.219-4.272,22.411-11.427
	l28.837-39.742c3.276-4.516,8.563-7.211,14.141-7.211h47.952c4.025,0,7.287-3.262,7.287-7.287s-3.262-7.287-7.287-7.287H226.09
	c-10.231,0-19.928,4.944-25.936,13.225l-28.837,39.743c-2.459,3.389-6.428,5.412-10.616,5.412h-57.432v-11.302
	c0-9.067-7.377-16.444-16.444-16.444H37.387c-9.067,0-16.445,7.377-16.445,16.444v13.888c-0.239,0.099-0.474,0.205-0.71,0.309
	c-0.255,0.112-0.509,0.226-0.761,0.345c-0.178,0.084-0.355,0.17-0.531,0.258c-0.34,0.167-0.676,0.34-1.01,0.518
	c-0.096,0.051-0.191,0.102-0.287,0.155c-1.864,1.018-3.639,2.208-5.292,3.571c-0.002,0.002-0.005,0.003-0.007,0.005
	c-0.833,0.686-1.643,1.423-2.41,2.189c-0.316,0.316-0.609,0.653-0.912,0.98c-0.088,0.095-0.178,0.188-0.264,0.284
	c-0.319,0.353-0.63,0.712-0.934,1.078c-0.093,0.111-0.181,0.226-0.273,0.339c-0.521,0.643-1.016,1.305-1.488,1.984
	c-0.117,0.168-0.236,0.335-0.35,0.505c-0.234,0.351-0.462,0.706-0.684,1.065c-0.153,0.247-0.298,0.5-0.444,0.751
	c-0.159,0.274-0.332,0.539-0.483,0.818c-0.001,0.002-0.003,0.005-0.004,0.007c0,0.001-0.001,0.001-0.001,0.002
	c-0.002,0.003-0.003,0.007-0.005,0.01c-0.195,0.359-0.369,0.728-0.55,1.093c-0.075,0.15-0.154,0.298-0.226,0.45
	c-0.151,0.315-0.292,0.635-0.432,0.955c-0.126,0.286-0.25,0.574-0.369,0.864c-0.107,0.263-0.212,0.526-0.312,0.791
	c-0.159,0.418-0.307,0.84-0.449,1.265c-0.053,0.16-0.112,0.318-0.162,0.479c-0.397,1.248-0.721,2.529-0.972,3.835
	c-0.025,0.127-0.045,0.255-0.068,0.382c-0.094,0.518-0.176,1.039-0.245,1.565c-0.022,0.168-0.044,0.335-0.064,0.503
	c-0.058,0.498-0.104,0.999-0.141,1.503c-0.012,0.169-0.029,0.337-0.039,0.506C0.024,166.221,0,166.878,0,167.54v93.319
	c0,4.024,3.262,7.287,7.287,7.287s7.287-3.262,7.287-7.287V167.54c0-0.593,0.037-1.177,0.089-1.756
	c0.012-0.125,0.021-0.251,0.035-0.376c0.061-0.555,0.144-1.104,0.252-1.645c0.022-0.109,0.048-0.217,0.072-0.326
	c0.113-0.521,0.243-1.035,0.397-1.54c0.014-0.046,0.025-0.093,0.04-0.14c0.179-0.571,0.386-1.131,0.616-1.678
	c0.018-0.043,0.037-0.086,0.055-0.129c0.479-1.119,1.059-2.184,1.731-3.183c0.021-0.031,0.043-0.062,0.064-0.093
	c0.329-0.483,0.678-0.951,1.049-1.401c0.014-0.017,0.027-0.034,0.041-0.051c1.966-2.375,4.486-4.274,7.362-5.497
	c0.021-0.009,0.041-0.017,0.062-0.025c0.535-0.225,1.084-0.425,1.643-0.602c0.065-0.021,0.131-0.041,0.197-0.061
	c0.508-0.155,1.026-0.286,1.551-0.4c0.069-0.015,0.137-0.031,0.205-0.045c0.07-0.014,0.141-0.027,0.211-0.04
	c0.461-0.089,0.929-0.159,1.401-0.215c0.123-0.014,0.243-0.035,0.366-0.047c0.027-0.003,0.054-0.004,0.081-0.007
	c0.603-0.057,1.212-0.093,1.83-0.093h50.608c0.722,0,1.437,0.038,2.147,0.106c0.035,0.003,0.07,0.005,0.105,0.009
	c0.673,0.068,1.339,0.172,1.999,0.302c0.086,0.017,0.173,0.033,0.258,0.051c0.621,0.13,1.236,0.289,1.844,0.473
	c0.114,0.035,0.228,0.07,0.341,0.106c0.587,0.188,1.168,0.401,1.741,0.64c7.927,3.313,13.512,11.145,13.512,20.259v230.102
	c0,6.429-2.778,12.221-7.197,16.238c-3.611,3.283-8.318,5.378-13.499,5.671c-0.041,0.002-0.081,0.007-0.123,0.009
	c-0.222,0.011-0.446,0.012-0.669,0.017c-0.153,0.003-0.305,0.012-0.459,0.012H33.92c-10.668,0-19.347-8.679-19.347-19.347V298.911
	c0-4.024-3.262-7.287-7.287-7.287S0,294.887,0,298.911v103.932c0,18.704,15.216,33.92,33.92,33.92h50.608h0.002h0.001H478.08
	c18.704,0,33.92-15.217,33.92-33.92v-24.261V193.879V167.54C512,148.836,496.784,133.62,478.08,133.62z M88.692,133.62h-4.163
	H35.515v-11.302c0-1.032,0.84-1.871,1.872-1.871h49.434c1.031,0,1.871,0.84,1.871,1.871V133.62z M121.048,201.165h26.073
	c-11.019,21.928-17.236,46.668-17.236,72.835c0,36.448,12.043,70.136,32.358,97.295h-41.195L121.048,201.165L121.048,201.165z
	 M113.701,422.19c0.017-0.022,0.032-0.045,0.048-0.067c0.065-0.086,0.125-0.175,0.189-0.261c0.258-0.35,0.511-0.704,0.757-1.063
	c0.098-0.144,0.193-0.29,0.29-0.435c0.208-0.314,0.412-0.631,0.611-0.952c0.095-0.154,0.19-0.308,0.283-0.463
	c0.203-0.339,0.4-0.682,0.592-1.028c0.074-0.133,0.15-0.264,0.222-0.397c0.522-0.967,1.001-1.96,1.435-2.976
	c0.055-0.128,0.106-0.258,0.159-0.387c0.158-0.382,0.311-0.767,0.456-1.156c0.06-0.162,0.119-0.324,0.177-0.487
	c0.134-0.373,0.261-0.749,0.382-1.127c0.051-0.158,0.103-0.316,0.152-0.475c0.135-0.44,0.26-0.884,0.379-1.331
	c0.025-0.092,0.052-0.184,0.076-0.276c0.141-0.551,0.27-1.107,0.386-1.667c0.018-0.086,0.032-0.173,0.049-0.259
	c0.093-0.465,0.177-0.933,0.252-1.405c0.026-0.165,0.049-0.331,0.072-0.497c0.058-0.404,0.11-0.81,0.155-1.218
	c0.019-0.178,0.039-0.356,0.056-0.535c0.041-0.425,0.072-0.853,0.098-1.283c0.009-0.149,0.021-0.298,0.028-0.448
	c0.028-0.582,0.046-1.166,0.046-1.754v-14.374h53.374c10.974,11.589,23.515,21.399,37.142,29.222
	c4.468,2.578,9.071,4.947,13.792,7.099L113.701,422.19L113.701,422.19z M219.046,402.585c-0.006-0.004-0.013-0.007-0.019-0.011
	c-0.341-0.195-0.676-0.401-1.016-0.599c-43.96-25.737-73.552-73.462-73.552-127.975c0-77.52,59.833-141.318,135.742-147.662
	c0.54-0.044,1.079-0.092,1.62-0.13c0.731-0.053,1.465-0.097,2.199-0.14c0.861-0.049,1.724-0.09,2.588-0.124
	c0.551-0.022,1.101-0.047,1.653-0.063c1.459-0.042,2.92-0.07,4.387-0.07c1.467,0,2.929,0.028,4.387,0.07
	c0.552,0.016,1.102,0.041,1.653,0.063c0.864,0.034,1.726,0.076,2.587,0.124c0.735,0.042,1.469,0.087,2.201,0.14
	c0.54,0.038,1.078,0.086,1.617,0.13c75.908,6.343,135.743,70.142,135.743,147.663c0,54.513-29.593,102.238-73.552,127.975
	c-0.34,0.198-0.675,0.404-1.016,0.599c-0.006,0.004-0.013,0.007-0.019,0.011c-22.212,12.701-47.579,19.604-73.601,19.604
	C266.625,422.189,241.258,415.286,219.046,402.585z M497.427,402.843c0,10.668-8.679,19.347-19.347,19.347H359.937
	c4.721-2.152,9.323-4.521,13.791-7.099c13.627-7.823,26.169-17.634,37.143-29.223h86.556L497.427,402.843L497.427,402.843z
	 M497.427,371.295h-74.376c20.315-27.159,32.358-60.847,32.358-97.295c0-26.168-6.217-50.908-17.236-72.835h59.254V371.295z"/>
<g>
</g>
<g>
</g>
<g>
</g>
<g>
</g>
<g>
</g>
<g>
</g>
<g>
</g>
<g>
</g>
<g>
</g>
<g>
</g>
<g>
</g>
<g>
</g>
<g>
</g>
<g>
</g>
<g>
</g>
</svg>
